{
  "type": "service_account",
  "project_id": "buoyant-striker-238018",
  "private_key_id": "8a2acc886a2e56111cf5f08cdc19b354f92c70b8",
  "private_key": "-----BEGIN PRIVATE KEY-----\nMIIEvgIBADANBgkqhkiG9w0BAQEFAASCBKgwggSkAgEAAoIBAQCQJpUEOBcfseay\no6G2F1pl690oQ4tPyJDIQj462zmzjhrUNf4T7Hw2jIPCMRHrwgwGaNs0LjSoHFEd\nm4m9Eo8qUWH75nRY2s9DhVdleeVzCJOHW39EqhqE01gYm86YBLzYCyv8jYrFNno6\ncX6OvZMse697Oi39lvUJXlMO71A3e22jYjGdhuFhUdIatGy5bD99bop/UeQwVTPT\nJ5wyP4wO5EHPOmyrXl0IZdPLcZktfqL4u303Dj02CIRAdYEeVtE1Wg4gcFZCSwF3\nGlnbnYfKJhEEjADsexmNZ6VZaxz4Qg8u+0imZDUPueh6akLSTft9YjI+EnE1i5fH\nP0J/sAB3AgMBAAECggEAHPOKyUqkpkp6LZW8tFAzaTX6eIw8Th1XqsjXK8X87EmV\nrNpdOc4s0l3dVqK5WTLjbGQh5nSDQeJSDlK/UriIBXVL6yZJZtEngIWm3Gwjf7uQ\nucZQJM/PPK8fye19DD4jWXbA8lvRK7O5z8QcqXl8thnvUB4Kv5xSgXuuzdiVsVat\nHjkXqwhHrQLbl1KQsHwuNJD4yeTH2/epdO383xq5iK3OHgbTJ08WBZEDUtxxtcns\n1zq4YPfYegyLnCFCBKZ1isRfB/2dO+GTg6LMBN5Hu4nlDqY5bEvCq6OOEQDsoDEY\nsKkjb/XVajOBVPv+VDIjA54ZapTZLlwwgsCPw5+ZrQKBgQDIZvAqGFRrOt0slKsd\n7PtIPdQsbZ2j80iZ5SPocW+sVAGAXGJllGBxafLzhXR87EtFqHLrk3jEr0yFx+0y\ndqrLoCGzqrp1J7dzJHyrypO8xas6tFCPX01gF6ZD3N1ILCICo22mlEHf79vDMxFw\nZpwQWsAyIdB0hEwwlOT6P4lJ/QKBgQC4JIdPFMgjclOIRzje3hWPhWcXrOhFyVD+\n7/XgrdPlsW1G2pjBhvTK0xtT4cCI00VrqgLZ5hiCxLL07/P8HUgbiWCUBbqZ4Yaf\n0CoFtgySguqjlE8CDv+XdHyfuQqL8ro+l7ZbmEKcYrnVVT8ujD5vURhAOJwKnSs8\nn6BlcLL0gwKBgQC95sXYrft5LWufLjZFAmdQGr7vZuRGE2kN5FQ1lSDkpSpTD7hy\nV7tYXbTKzQEIzAW8OZbE45dCkncqIr0D3+2TTegB0FwmXn95je7SAAIllQ7gbzQT\n2JSC5YY5spbCKIgGBgYHH2CZKzsN61uwLpve55BPMTnO3/su4jllZkXbpQKBgBsC\nmKpb5QN2CJSrxcbDEqyLp9SMM0HRRsUuU4WSWcuOW/YRqGhysENz9cU3DvPC8aLa\nPDLUEnJUAd/1tncboHERlI4BzR43O3UDprZRvsRa2aoG3hPyOUFw/7q5/LcMco8t\n17zVt6eSv6lwKKVeQuY3IfSBmTnhVe89htx6THWbAoGBAJqBANjY82h1/mjTm/sm\n3Zay2uruan+JVj8iShYZzc0j2Qjzzx3JkND/QysBAtRyy9jmPIjTvaZJ//x5gMOA\nbabQdta4+/LLs9V+iINwWCNPtNVRNSbFAaYO9Zqttvz6AhCCdeMa/uR6Bldom8e7\nnMRQw3id7+1JxWu5Seaw0E00\n-----END PRIVATE KEY-----\n",
  "client_email": "terraform-google@buoyant-striker-238018.iam.gserviceaccount.com",
  "client_id": "101266842136342856108",
  "auth_uri": "https://accounts.google.com/o/oauth2/auth",
  "token_uri": "https://oauth2.googleapis.com/token",
  "auth_provider_x509_cert_url": "https://www.googleapis.com/oauth2/v1/certs",
  "client_x509_cert_url": "https://www.googleapis.com/robot/v1/metadata/x509/terraform-google%40buoyant-striker-238018.iam.gserviceaccount.com"
}
